…
### Load and view data

Load the [ruminant vertebral morphology data
set](https://github.com/avanlinden/PCA-in-R/tree/master/data) and format
it as a tibble (a tibble is dplyr’s version of a dataframe), then take a
look at it.

``` r
vertData_tbl <- as_tibble(read.csv("data/ruminant_vert_morph_data.csv"))

vertData_tbl
```

    ## # A tibble: 8,096 x 11
    ##        X catNum type  vertebra measure value logValue sex   spp   logBMSS
    ##    <int> <fct>  <fct> <fct>    <fct>   <dbl>    <dbl> <fct> <fct>   <dbl>
    ##  1     1 117402 line… C2       CH       12.4     1.09 fema… Pseu…    1.60
    ##  2     2 117402 line… C3       CH       13.6     1.13 fema… Pseu…    1.60
    ##  3     3 117402 line… C4       CH       13.7     1.14 fema… Pseu…    1.60
    ##  4     4 117402 line… C5       CH       13.6     1.13 fema… Pseu…    1.60
    ##  5     5 117402 line… C6       CH       12.7     1.10 fema… Pseu…    1.60
    ##  6     6 117402 line… C7       CH       13.1     1.12 fema… Pseu…    1.60
    ##  7     7 117402 line… T1       CH       13.2     1.12 fema… Pseu…    1.60
    ##  8     8 122606 line… C2       CH       43.3     1.64 fema… Biso…    2.66
    ##  9     9 122606 line… C3       CH       44.1     1.64 fema… Biso…    2.66
    ## 10    10 122606 line… C4       CH       44.6     1.65 fema… Biso…    2.66
    ## # … with 8,086 more rows, and 1 more variable: fightStyle <fct>
…
    c(
      "CH" = "centrumHeight",
      "CL" = "centrumLength",
      "CW" = "centrumWidth",
      "DL" = "densLength",
      "DW" = "densWidth",
      "NSL" = "neuralSpineLength",
      "NSLA" = "neuralSpineLeverArm",
      "preZD" = "preZygDist",
      "TPLA" = "transProcessLeverArm"
    ) #rename measurements for non-morphologists
  )) 
```

    ## # A tibble: 792 x 10
    ##    catNum vertebra measure value logValue sex   spp   logBMSS fightStyle
    ##    <fct>  <fct>    <fct>   <dbl>    <dbl> <fct> <fct>   <dbl> <fct>     
    ##  1 117402 C2       CH       12.4     1.09 fema… Pseu…    1.60 ram       
    ##  2 122606 C2       CH       43.3     1.64 fema… Biso…    2.66 ram       
    ##  3 123044 C2       CH       27.6     1.44 male  Ovis…    1.91 ram       
    ##  4 123092 C2       CH       19.2     1.28 fema… Ovis…    1.73 ram       
    ##  5 127195 C2       CH       29.7     1.47 fema… Dama…    2.08 wrestle   
    ##  6 127940 C2       CH       39.9     1.60 fema… Hipp…    2.41 wrestle   
    ##  7 127954 C2       CH       15.3     1.18 fema… Lito…    1.54 wrestle   
    ##  8 127980 C2       CH       19.3     1.29 fema… Redu…    1.61 wrestle   
    ##  9 128002 C2       CH       46.0     1.66 fema… Trag…    2.62 wrestle   
    ## 10 13069  C2       CH       27.1     1.43 male  Ammo…    2.05 ram       
    ## # … with 782 more rows, and 1 more variable: measureName <chr>
…
vertData #view the new tibble
```

    ## # A tibble: 792 x 7
    ##    catNum measureName   logValue sex   spp           logBodyMass fightStyle
    ##    <fct>  <chr>            <dbl> <fct> <fct>               <dbl> <fct>     
    ##  1 117402 centrumHeight     1.09 fema… Pseudois nay…        1.60 ram       
    ##  2 122606 centrumHeight     1.64 fema… Bison bison          2.66 ram       
    ##  3 123044 centrumHeight     1.44 male  Ovis dalli           1.91 ram       
    ##  4 123092 centrumHeight     1.28 fema… Ovis dalli           1.73 ram       
    ##  5 127195 centrumHeight     1.47 fema… Damaliscus l…        2.08 wrestle   
    ##  6 127940 centrumHeight     1.60 fema… Hippotragus …        2.41 wrestle   
    ##  7 127954 centrumHeight     1.18 fema… Litocranius …        1.54 wrestle   
    ##  8 127980 centrumHeight     1.29 fema… Redunca redu…        1.61 wrestle   
    ##  9 128002 centrumHeight     1.66 fema… Tragelaphus …        2.62 wrestle   
    ## 10 13069  centrumHeight     1.43 male  Ammotragus l…        2.05 ram       
    ## # … with 782 more rows
…
Note: we’ll use the log10 transformed measurements, since PCA assumes
each variable has a normal distribution.

``` r
wideData <- vertData %>% 
  spread(key = measureName, value = logValue) #now each specimen has its own row with 9 measurements

wideData
```

    ## # A tibble: 88 x 14
    ##    catNum sex   spp   logBodyMass fightStyle centrumHeight centrumLength
    ##    <fct>  <fct> <fct>       <dbl> <fct>              <dbl>         <dbl>
    ##  1 117402 fema… Pseu…        1.60 ram                 1.09          1.54
    ##  2 122606 fema… Biso…        2.66 ram                 1.64          1.91
    ##  3 123044 male  Ovis…        1.91 ram                 1.44          1.78
    ##  4 123092 fema… Ovis…        1.73 ram                 1.28          1.72
    ##  5 127195 fema… Dama…        2.08 wrestle             1.47          1.86
    ##  6 127940 fema… Hipp…        2.41 wrestle             1.60          1.95
    ##  7 127954 fema… Lito…        1.54 wrestle             1.18          1.83
    ##  8 127980 fema… Redu…        1.61 wrestle             1.29          1.71
    ##  9 128002 fema… Trag…        2.62 wrestle             1.66          2.04
    ## 10 13069  male  Ammo…        2.05 ram                 1.43          1.79
    ## # … with 78 more rows, and 7 more variables: centrumWidth <dbl>,
    ## #   densLength <dbl>, densWidth <dbl>, neuralSpineLength <dbl>,
    ## #   neuralSpineLengthA <dbl>, preZygDist <dbl>, transProcessLeverArm <dbl>
…
I like to rejoin my PC scores for each specimen with the original
dataframe, so that I can include things like the species name, sex, etc
in the visualizations:

``` r
vertPCscores <- vertPCA$x %>% 
  as_tibble() %>% #convert PC scores (vertPCA$x) to tibble
  add_column(catNum = wideData$catNum) %>%  #add catalog numbers from df used for PCA (unique identifiers)
  right_join(wideData, by = 'catNum') %>% #rejoin the PC scores to wideData tibble
  select(catNum:fightStyle, PC1:PC9) #select name, sex, fighting style columns and PC scores

vertPCscores
```

    ## # A tibble: 88 x 14
    ##    catNum sex   spp   logBodyMass fightStyle     PC1     PC2      PC3
    ##    <fct>  <fct> <fct>       <dbl> <fct>        <dbl>   <dbl>    <dbl>
    ##  1 117402 fema… Pseu…        1.60 ram        -0.705   0.225  -0.0963 
    ##  2 122606 fema… Biso…        2.66 ram         0.443   0.0925 -0.00355
    ##  3 123044 male  Ovis…        1.91 ram         0.0516  0.113   0.0290 
    ##  4 123092 fema… Ovis…        1.73 ram        -0.331   0.0883 -0.0786 
    ##  5 127195 fema… Dama…        2.08 wrestle     0.0235 -0.0164  0.0156 
    ##  6 127940 fema… Hipp…        2.41 wrestle     0.315  -0.0840  0.0305 
    ##  7 127954 fema… Lito…        1.54 wrestle    -0.680  -0.256  -0.105  
    ##  8 127980 fema… Redu…        1.61 wrestle    -0.525  -0.0376 -0.0507 
    ##  9 128002 fema… Trag…        2.62 wrestle     0.506  -0.0551 -0.00802
    ## 10 13069  male  Ammo…        2.05 ram         0.0267  0.0134 -0.0266 
    ## # … with 78 more rows, and 6 more variables: PC4 <dbl>, PC5 <dbl>,
    ## #   PC6 <dbl>, PC7 <dbl>, PC8 <dbl>, PC9 <dbl>
…
